<svg xmlns="http://www.w3.org/2000/svg" width="35" height="35" viewBox="0 0 35 35">
    <g fill="none" fill-rule="evenodd">
        <path fill="#FFF" d="M-222-1051h1947v2469H-222z"/>
        <path fill="#E6E9F0" d="M-222-1051h1947v2469H-222z"/>
        <path fill="#3566D6" d="M0 0h35v35H0z"/>
        <path fill="#FFF" d="M15 22.17L10.83 18l-1.42 1.41L15 25l12-12-1.41-1.41z"/>
    </g>
</svg>
