<svg xmlns="http://www.w3.org/2000/svg" width="8" height="12" viewBox="0 0 8 12">
    <g fill="none" fill-rule="evenodd">
        <path fill="#FFF" d="M-1527-725H420v2469h-1947z"/>
        <path fill="#E6E9F0" d="M-1527-725H420v2469h-1947z"/>
        <path stroke="#1F1F1F" d="M1 11.5L7 6 1 .5" opacity=".24"/>
    </g>
</svg>
