<svg xmlns="http://www.w3.org/2000/svg" width="30" height="30" viewBox="0 0 30 30">
    <g fill="none" fill-rule="evenodd">
        <path stroke="#FFF" stroke-width="2" d="M8 12l6.993 7.608L22 12"/>
        <path fill="#FFF" fill-rule="nonzero" d="M14 4h2v15h-2V4zM4 24h22v2H4v-2z"/>
    </g>
</svg>
