<svg xmlns="http://www.w3.org/2000/svg" width="30" height="30" viewBox="0 0 30 30">
    <g fill="none" fill-rule="evenodd">
        <path fill="#FFF" d="M4 23h22v2H4z"/>
        <path stroke="#FFF" stroke-width="2" d="M7 11.002L13.496 18 23 7"/>
    </g>
</svg>
