<svg xmlns="http://www.w3.org/2000/svg" width="15" height="15" viewBox="0 0 15 15">
    <path fill="#1A1919" fill-rule="evenodd" d="M7.313 4.615c.31 0 .562.255.562.573v.006a.569.569 0 0 1-.563.575.569.569 0 0 1-.562-.575c0-.318.251-.579.563-.579zm0 2.308c.31 0 .562.237.562.529v2.789c0 .292-.251.528-.563.528-.31 0-.562-.236-.562-.528V7.45c0-.291.251-.528.563-.528zm0 6.539C4.107 13.462 1.5 10.787 1.5 7.5s2.608-5.962 5.813-5.962c3.204 0 5.812 2.675 5.812 5.962s-2.608 5.962-5.813 5.962zm0-13.077C3.485.385.375 3.577.375 7.5s3.11 7.115 6.938 7.115c3.823 0 6.937-3.192 6.937-7.115S11.136.385 7.312.385z"/>
</svg>
