<svg xmlns="http://www.w3.org/2000/svg" width="35" height="35" viewBox="0 0 35 35">
    <g fill="none" fill-rule="evenodd">
        <path fill="#FFF" d="M-131-1051h1947v2469H-131z"/>
        <path fill="#E6E9F0" d="M-131-1051h1947v2469H-131z"/>
        <path fill="#FFCB04" d="M0 0h35v35H0z"/>
        <g fill="#FFF">
            <path d="M15.156 15.563h4.688a.469.469 0 1 0 0-.938h-4.688a.469.469 0 1 0 0 .938zM15.156 13.688h.938a.469.469 0 1 0 0-.938h-.938a.469.469 0 1 0 0 .938zM20.313 16.969a.469.469 0 0 0-.47-.469h-4.687a.469.469 0 1 0 0 .938h4.688c.259 0 .468-.21.468-.47z"/>
            <path fill-rule="nonzero" d="M22.656 12.994v-1.65a.469.469 0 0 0-.468-.469h-2.18l-2.215-1.772a.469.469 0 0 0-.586 0l-2.215 1.772h-2.18a.469.469 0 0 0-.468.469v1.65l-2.168 1.734a.468.468 0 0 0-.176.366v9.375c0 .259.21.468.469.468H24.53c.26 0 .469-.21.469-.468v-9.375a.469.469 0 0 0-.176-.366l-2.168-1.734zm0 1.2l1.125.9-1.125.9v-1.8zM17.5 10.07l1.007.806h-2.014l1.007-.806zm-4.219 1.743h8.438v4.932L17.5 20.119l-4.219-3.375v-4.932zm-.937 2.382v1.8l-1.125-.9 1.125-.9zM24.063 24H10.938v-7.93l6.27 5.015a.469.469 0 0 0 .586 0l6.268-5.016V24z"/>
        </g>
    </g>
</svg>
