<svg xmlns="http://www.w3.org/2000/svg" width="38" height="38" viewBox="0 0 38 38">
    <g fill="none" fill-rule="evenodd">
        <circle cx="19" cy="19" r="19" fill="#F3F3F3"/>
        <g fill="#000">
            <path d="M18.946 13h1v12.807h-1z"/>
            <path d="M13 19.861v-.915h12.807v.915z"/>
        </g>
    </g>
</svg>
