<svg xmlns="http://www.w3.org/2000/svg" width="21" height="21" viewBox="0 0 21 21">
    <path fill="#787D8E" fill-rule="nonzero" d="M15.795 14.695l4.936 4.936-1.1 1.1-4.936-4.936a8.944 8.944 0 1 1 1.1-1.1zm-6.85 1.638a7.389 7.389 0 1 0 0-14.777 7.389 7.389 0 0 0 0 14.777z"/>
</svg>
