<svg xmlns="http://www.w3.org/2000/svg" width="34" height="36" viewBox="0 0 34 36">
    <g fill="none" fill-rule="evenodd">
        <ellipse cx="17" cy="18.033" fill="#A1A7B1" stroke="#FFF" stroke-width="2" rx="15" ry="15.056"/>
        <ellipse cx="17" cy="18.033" stroke="#FFF" stroke-width="2" rx="6.75" ry="6.775"/>
        <path fill="#FFF" fill-rule="nonzero" d="M16.25 9h1.5v2.258h-1.5V9zm6.584 2.114l1.06 1.064-1.59 1.597-1.061-1.065 1.59-1.596zM26 17.28v1.505h-2.25v-1.505H26zm-2.106 6.607l-1.06 1.065-1.591-1.596 1.06-1.065 1.591 1.596zm-6.144 3.179h-1.5v-2.259h1.5v2.259zm-6.584-2.114l-1.06-1.065 1.59-1.596 1.061 1.064-1.59 1.597zM8 18.786v-1.505h2.25v1.505H8zm2.106-6.608l1.06-1.064 1.591 1.596-1.06 1.066-1.591-1.598z"/>
    </g>
</svg>
