<svg xmlns="http://www.w3.org/2000/svg" width="20" height="20" viewBox="0 0 20 20">
    <g fill="none" fill-rule="evenodd">
        <circle cx="10" cy="10" r="10" fill="#FFF"/>
        <path fill="#3566D6" d="M5.607 14.394c-.913-.024-1.242-.737-1.24-1.211v-7.29c0-.22.18-.402.402-.402h2.937a.4.4 0 0 1 .278.113l1.458 1.399c.726.003 3.69.013 4.472.013.5 0 .792.196.949.36.324.34.315.777.313.825v4.966c0 .474-.185.756-.34.911a1.183 1.183 0 0 1-.788.327c-.158 0-2.152.005-4.173.005-1.896 0-3.817-.005-4.268-.016z"/>
    </g>
</svg>
