<svg xmlns="http://www.w3.org/2000/svg" width="35" height="35" viewBox="0 0 35 35">
    <path fill="#000" fill-rule="evenodd" d="M21 17.25A2.24 2.24 0 0 0 23.242 15a2.247 2.247 0 0 0-4.492 0A2.247 2.247 0 0 0 21 17.25zm-6 0A2.24 2.24 0 0 0 17.242 15a2.247 2.247 0 0 0-4.492 0A2.247 2.247 0 0 0 15 17.25zm0 1.5c-1.747 0-5.25.877-5.25 2.625v1.875h10.5v-1.875c0-1.748-3.503-2.625-5.25-2.625zm6 0c-.217 0-.465.015-.727.037.87.63 1.477 1.478 1.477 2.588v1.875h4.5v-1.875c0-1.748-3.502-2.625-5.25-2.625z"/>
</svg>
