<svg xmlns="http://www.w3.org/2000/svg" width="32" height="33" viewBox="0 0 32 33">
    <ellipse cx="17" cy="18.033" fill="#A1A7B1" fill-rule="evenodd" stroke="#FFF" stroke-width="2" rx="15" ry="15.056" transform="translate(-1 -2)"/>
</svg>
