<svg xmlns="http://www.w3.org/2000/svg" width="29" height="29" viewBox="0 0 29 29">
    <g fill="none" fill-rule="evenodd" transform="translate(1 1)">
        <text fill="#000" font-family="NotoSansCJKkr-Medium, Noto Sans CJK KR" font-size="13" font-weight="400" letter-spacing="-.153">
            <tspan x="10.372" y="18">3</tspan>
        </text>
        <circle cx="13.5" cy="13.5" r="10.5" stroke="#8B572A" opacity=".503"/>
        <circle cx="13.5" cy="13.5" r="13.5" stroke="#8B572A"/>
    </g>
</svg>
